{
  "files": {
    "main.css": "/static/css/main.5ecd60fb.chunk.css",
    "main.js": "/static/js/main.437c43e7.chunk.js",
    "main.js.map": "/static/js/main.437c43e7.chunk.js.map",
    "runtime-main.js": "/static/js/runtime-main.82540642.js",
    "runtime-main.js.map": "/static/js/runtime-main.82540642.js.map",
    "static/css/2.333d46b7.chunk.css": "/static/css/2.333d46b7.chunk.css",
    "static/js/2.734e59f2.chunk.js": "/static/js/2.734e59f2.chunk.js",
    "static/js/2.734e59f2.chunk.js.map": "/static/js/2.734e59f2.chunk.js.map",
    "index.html": "/index.html",
    "precache-manifest.00955d6ddeb91a141ac69065992ef72b.js": "/precache-manifest.00955d6ddeb91a141ac69065992ef72b.js",
    "service-worker.js": "/service-worker.js",
    "static/css/2.333d46b7.chunk.css.map": "/static/css/2.333d46b7.chunk.css.map",
    "static/css/main.5ecd60fb.chunk.css.map": "/static/css/main.5ecd60fb.chunk.css.map",
    "static/js/2.734e59f2.chunk.js.LICENSE.txt": "/static/js/2.734e59f2.chunk.js.LICENSE.txt"
  },
  "entrypoints": [
    "static/js/runtime-main.82540642.js",
    "static/css/2.333d46b7.chunk.css",
    "static/js/2.734e59f2.chunk.js",
    "static/css/main.5ecd60fb.chunk.css",
    "static/js/main.437c43e7.chunk.js"
  ]
}