{
    "status": "success",
    "data": [
        {
            "name": "09:00 AM-12:00 PM",
            "stat": {
                "sent": 4,
                "opened": 1,
                "replied": 1,
                "bounced": 1
            }
        },
        {
            "name": "12:00 PM-03:00 PM",
            "stat": {
                "sent": 1,
                "opened": 1,
                "replied": 0,
                "bounced": 0
            }
        },
        {
            "name": "03:00 PM-06:00 PM",
            "stat": {
                "sent": 0,
                "opened": 0,
                "replied": 0,
                "bounced": 0
            }
        },
        {
            "name": "06:00 PM-09:00 PM",
            "stat": {
                "sent": 1,
                "opened": 1,
                "replied": 1,
                "bounced": 0
            }
        },
        {
            "name": "09:00 PM-12:00 AM",
            "stat": {
                "sent": 1,
                "opened": 1,
                "replied": 0,
                "bounced": 0
            }
        },
        {
            "name": "12:00 AM-03:00 AM",
            "stat": {
                "sent": 0,
                "opened": 0,
                "replied": 0,
                "bounced": 0
            }
        },
        {
            "name": "03:00 AM-06:00 AM",
            "stat": {
                "sent": 1,
                "opened": 0,
                "replied": 0,
                "bounced": 1
            }
        },
        {
            "name": "06:00 AM-09:00 AM",
            "stat": {
                "sent": 1,
                "opened": 1,
                "replied": 1,
                "bounced": 1
            }
        }
    ],
    "message": "hour wise related data"
}