{
	"status": "success",
	"message": "Scheduled Followup Summary",
	"data": {    
		"sent": {
			"today": {
				"title" : "Today",
				"count": 2
			},
			"30_days": {
				"title" : "30 Days",
				"count": 100
			},
			"6_month": {
				"title" : "6 Months",
				"count": 500
			},
			"all": {
				"title" : "All Time",
				"count": 700
			}
		},
		"replied": {
			"today": {
				"title" : "Today",
				"count": 1
			},
			"30_days": {
				"title" : "Today",
				"count": 25
			},
			"6_month": {
				"title" : "Today",
				"count": 100
			},
			"all": {
				"title" : "Today",
				"count": 200
			}
		}
	}
}
