{
    "status": "success",
    "data": [{
        "status": 1,
        "createdAt": "2020-06-17T10:42:04.228Z",
        "id": "5eea0079d4afa912cc056bcc",
        "name": "Propsal Sequence",
        "user_id": "5ed9492b958e5d4eac62e076",
        "description": "Lorem Ipsum is simply dummy text of the printing and typesetting industry. Lorem Ipsum has been the industry's standard dummy text ever since the 1500s, when an unknown printer took a galley of type and scrambled it to make a type specimen book.",
        "stages": [
            {
                "name": "Propsal Sequence Stage 1",
                "day_after_original_mail": 5,
                "enable": true,
                "body": "<p>Hello {username},</p>\n<p>&nbsp;</p>\n<p>Some test mail.</p>\n<p>&nbsp;</p>\n<p>&nbsp;</p>\n<p>&nbsp;</p>\n<p>Thanks</p>\n<p>Team XYZ</p>",
                "template_id": "5ef1bee71e50522b5b4d16c1"
            },
            {
                "name": "Propsal Sequence Stage 2",
                "day_after_original_mail": 8,
                "enable": true,
                "body": "<p>Hello {firstname},</p>\n<p>&nbsp;</p>\n<p>This is a test email for assigned {task}.</p>\n<p>&nbsp;</p>\n<p>&nbsp;</p>\n<p>Thanks</p>\n<p>Signature</p>",
                "template_id": "5ef1bee71e50522b5b4d16c1"
            },
            {
                "name": "Propsal Sequence Stage 3",
                "day_after_original_mail": 12,
                "enable": true,
                "body": "<p>Hello {firstname},</p>\n<p>&nbsp;</p>\n<p>Can you take a look at this message?</p>\n<p>&nbsp;</p>\n<p>Thanks</p>",
                "template_id": "5ef1bee71e50522b5b4d16c1"
            }
        ],
        "is_additional_setting": true,
        "action": {
            "stop_sequence_event": 2,
            "is_stopped": false,
            "sequence_id": "5eea010cd4afa912cc056bce"
        }
    }, {
        "status": 1,
        "createdAt": "2020-06-17T10:42:04.228Z",
        "id": "5eea00ccd4afa912cc056bcd",
        "name": "Demo Request Sequence",
        "user_id": "5ed9492b958e5d4eac62e076",
        "description": "It has survived not only five centuries, but also the leap into electronic typesetting, remaining essentially unchanged.",
        "stages": [
            {
                "name": "Demo Request Stage 1",
                "day_after_original_mail": 10,
                "enable": false,
                "body": "<p>Hello {username},</p>\n<p>&nbsp;</p>\n<p>Some test mail.</p>\n<p>&nbsp;</p>\n<p>&nbsp;</p>\n<p>&nbsp;</p>\n<p>Thanks</p>\n<p>Team XYZ</p>",
                "template_id": "5ef1bf1711ee230f103eeb64"
            },
            {
                "name": "Demo Request Stage 2",
                "day_after_original_mail": 20,
                "enable": false,
                "body": "<p>Hello {firstname},</p>\n<p>&nbsp;</p>\n<p>Can you take a look at this message?</p>\n<p>&nbsp;</p>\n<p>Thanks</p>",
                "template_id": "5ef1bf1711ee230f103eeb64"
            }
        ],
        "is_additional_setting": true,
        "action": {
            "stop_sequence_event": 1,
            "is_stopped": false,
            "sequence_id": "5eea010cd4afa912cc056bce"
        }
    }, {
        "status": 1,
        "createdAt": "2020-06-17T10:42:04.228Z",
        "id": "5eea010cd4afa912cc056bce",
        "name": "Payment Sequence",
        "user_id": "5ed9492b958e5d4eac62e076",
        "description": "It was popularised in the 1960s with the release of Letraset sheets containing Lorem Ipsum passages, and more recently with desktop publishing software like Aldus PageMaker including versions of Lorem Ipsum.",
        "stages": [
            {
                "name": "Payment Stage 1",
                "day_after_original_mail": 3,
                "enable": true,
                "body": "<p>Hello {username},</p>\n<p>&nbsp;</p>\n<p>Some test mail.</p>\n<p>&nbsp;</p>\n<p>&nbsp;</p>\n<p>&nbsp;</p>\n<p>Thanks</p>\n<p>Team XYZ</p>",
                "template_id": "5ef1bf1711ee230f103eeb64"
            },
            {
                "name": "Payment Stage 2",
                "day_after_original_mail": 7,
                "enable": false,
                "body": "<p>Hello {firstname},</p>\n<p>&nbsp;</p>\n<p>This is a test email for assigned {task}.</p>\n<p>&nbsp;</p>\n<p>&nbsp;</p>\n<p>Thanks</p>\n<p>Signature</p>",
                "template_id": "5ef1bee71e50522b5b4d16c1"
            },
            {
                "name": "Payment Stage 3",
                "day_after_original_mail": 10,
                "enable": false,
                "body": "<p>Hello {firstname},</p>\n<p>&nbsp;</p>\n<p>Can you take a look at this message?</p>\n<p>&nbsp;</p>\n<p>Thanks</p>",
                "template_id": "5ef1bee71e50522b5b4d16c1"
            }
        ],
        "is_additional_setting": true,
        "action": {
            "stop_sequence_event": 2,
            "is_stopped": true,
            "sequence_id": ""
        }
    }, {
        "status": 1,
        "createdAt": "2020-06-09T11:56:46.684Z",
        "id": "5edf7943824bbb5ccc0993",
        "name": "Implementation Sequence",
        "user_id": "5ed9492b958e5d4eac62e076",
        "description": "Contrary to popular belief, Lorem Ipsum is not simply random text. It has roots in a piece of classical Latin literature from 45 BC, making it over 2000 years old. Richard McClintock, a Latin professor at Hampden-Sydney College in Virginia, looked up one of the more obscure Latin words, consectetur, from a Lorem Ipsum passage, and going through the cites of the word in classical literature, discovered the undoubtable source.",
        "stages": [],
        "is_additional_setting": true,
        "action": {
            "stop_sequence_event": 3,
            "is_stopped": false,
            "sequence_id": "5edf7943824bbb5ccc0924"
        }
    }, {
        "status": 1,
        "createdAt": "2020-06-09T11:56:46.684Z",
        "id": "5edf7943824bbb5ccc0924",
        "name": "Go Live Sequence",
        "user_id": "5ed9492b958e5d4eac62e076",
        "description": "The standard chunk of Lorem Ipsum used since the 1500s is reproduced below for those interested. Sections 1.10.32 and 1.10.33 from 'de Finibus Bonorum et Malorum' by Cicero are also reproduced in their exact original form, accompanied by English versions from the 1914 translation by H. Rackham.",
        "stages": [],
        "is_additional_setting": false
    }],
    "message": "List of Sequences"
}