<?xml version="1.0" encoding="utf-8"?>
<!-- Generator: Adobe Illustrator 23.0.6, SVG Export Plug-In . SVG Version: 6.00 Build 0)  -->
<svg version="1.1" id="Layer_1" xmlns="http://www.w3.org/2000/svg" xmlns:xlink="http://www.w3.org/1999/xlink" x="0px" y="0px"
	 viewBox="0 0 100 100" style="enable-background:new 0 0 100 100;" xml:space="preserve">
<style type="text/css">
	.st0{fill:#010101;}
</style>
<g transform="translate(0,-288.53333)">
	<path class="st0" d="M10.1,297.8v66.8c0,8,6.5,14.5,14.5,14.5h55.1c1,0,2-0.2,2.9-0.4c-5-1.3-8.7-5.8-8.7-11.2v-31.9v-37.7
		L10.1,297.8z M21.7,312.3h40.6v5.8H21.7V312.3z M21.7,323.9h14.5v5.8H21.7V323.9z M42.1,323.9h20.3v17.4H42.1v-14.5V323.9z
		 M21.7,335.6h14.5v5.8H21.7V335.6z M79.8,335.6v31.9c0,3.3,2.5,5.8,5.8,5.8c2.8,0,5.1-1.9,5.7-4.6c0-0.4,0.1-0.8,0.1-1.2v-31.9
		H79.8z M21.7,347.2h40.6v5.8H21.7V347.2z M21.7,358.8h29v5.8h-29V358.8z"/>
</g>
</svg>
