<?xml version="1.0" encoding="utf-8"?>
<!-- Generator: Adobe Illustrator 23.0.6, SVG Export Plug-In . SVG Version: 6.00 Build 0)  -->
<svg version="1.1" id="Layer_1" xmlns="http://www.w3.org/2000/svg" xmlns:xlink="http://www.w3.org/1999/xlink" x="0px" y="0px"
	 viewBox="0 0 100 100" style="enable-background:new 0 0 100 100;" xml:space="preserve">
<g>
	<path d="M29.9,29.8l2.4,0.6c0.7,0.2,1.1,0.7,1.3,1.3c0.4,1.1,0.7,2.2,1.3,3.2c0.4,0.6,0.4,1.3,0,1.9l-1.3,2
		c-0.4,0.7-0.4,1.7,0.2,2.2l1.5,1.5c0.6,0.6,1.5,0.7,2.2,0.2l2-1.3c0.6-0.4,1.3-0.4,1.9,0c0.9,0.6,2,0.9,3.2,1.3
		c0.7,0.2,1.1,0.7,1.3,1.3l0.6,2.4c0.2,0.9,0.9,1.5,1.9,1.5h2.2c0.9,0,1.7-0.6,1.9-1.5l0.6-2.4c0.2-0.7,0.7-1.1,1.3-1.3
		c1.1-0.4,2.2-0.7,3.2-1.3c0.6-0.4,1.3-0.4,1.9,0l2,1.3c0.7,0.4,1.7,0.4,2.2-0.2L65,41c0.6-0.6,0.7-1.5,0.2-2.2l-1.3-2
		c-0.4-0.6-0.4-1.3,0-1.9c0.6-0.9,0.9-2,1.3-3.2c0.2-0.7,0.7-1.1,1.3-1.3l2.4-0.6c0.9-0.2,1.5-0.9,1.5-1.9v-2.2
		c0-0.9-0.6-1.7-1.5-1.9l-2.4-0.6c-0.7-0.2-1.1-0.7-1.3-1.3c-0.4-1.1-0.7-2.2-1.3-3.2c-0.4-0.6-0.4-1.3,0-1.9l1.7-2
		c0.4-0.7,0.4-1.7-0.2-2.2l-1.5-1.5c-0.6-0.6-1.5-0.7-2.2-0.2l-2,1.3c-0.6,0.4-1.3,0.4-1.9,0c-0.9-0.6-2-0.9-3.2-1.3
		c-0.7-0.2-1.1-0.7-1.3-1.3l-0.6-2.4c-0.2-0.9-0.9-1.5-1.9-1.5h-2.2c-0.9,0-1.7,0.6-1.9,1.5l-0.7,2c-0.2,0.7-0.7,1.1-1.3,1.3
		c-1.1,0.4-2.2,0.7-3.2,1.3c-0.6,0.4-1.3,0.4-1.9,0l-2-1.3c-0.7-0.4-1.7-0.4-2.2,0.2l-1.7,1.5c-0.6,0.6-0.7,1.5-0.2,2.2l1.3,2
		c0.4,0.6,0.4,1.3,0,1.9c-0.6,0.9-0.9,2-1.3,3.2c-0.2,0.7-0.7,1.1-1.3,1.3l-2.4,0.6c-0.9,0.2-1.5,0.9-1.5,1.9v2.6
		C28.4,28.7,29,29.4,29.9,29.8z M49.6,15.1c6.3,0,11.5,5.2,11.5,11.5s-5.2,11.5-11.5,11.5S38.1,33,38.1,26.6S43.3,15.1,49.6,15.1z"
		/>
	<path d="M49.6,33.7c3.9,0,7.1-3.2,7.1-7.1s-3.2-6.9-7.1-6.9s-7.1,3.2-7.1,7.1S45.7,33.7,49.6,33.7z"/>
	<path d="M93.7,37.6L54.8,75.5c-1.5,1.3-3.3,2-5.2,2c-1.9,0-3.7-0.7-5.2-2L5.6,37.6C5.2,38.3,5,39.3,5,40.2v49.1
		c0,3.2,2.4,5.6,5.6,5.6h78.1c3.2,0,5.6-2.4,5.6-5.6V40.2C94.2,39.3,94,38.3,93.7,37.6z"/>
	<path d="M52.2,72.7L91.1,35c-0.7-0.4-1.5-0.6-2.4-0.6H68.6c-0.2,0.4-0.4,0.7-0.4,0.9l0.7,1.1c1.5,2.2,1.1,5-0.7,6.9l-1.9,1.9
		c-1.1,1.1-2.4,1.7-3.9,1.7c-1.1,0-2-0.4-3-0.9l-1.1-0.7c-0.6,0.4-1.3,0.6-1.9,0.7l-0.4,1.3c-0.6,2.6-2.8,4.3-5.4,4.3h-2.2
		c-2.6,0-4.8-1.9-5.4-4.3L42.7,46c-0.7-0.2-1.3-0.6-1.9-0.7L39.8,46c-0.9,0.6-1.9,0.9-3,0.9c-1.5,0-2.8-0.6-3.9-1.7l-1.7-1.5
		c-1.9-1.9-2.2-4.6-0.7-6.9l0.7-1.1c-0.2-0.4-0.4-0.7-0.4-0.9H10.6c-0.9,0-1.7,0.2-2.4,0.6L47,73.1C48.5,74.2,50.7,74.2,52.2,72.7z"
		/>
</g>
</svg>
