<?xml version="1.0" encoding="utf-8"?>
<!-- Generator: Adobe Illustrator 23.0.6, SVG Export Plug-In . SVG Version: 6.00 Build 0)  -->
<svg version="1.1" id="Layer_1" xmlns="http://www.w3.org/2000/svg" xmlns:xlink="http://www.w3.org/1999/xlink" x="0px" y="0px"
	 viewBox="0 0 100 100" style="enable-background:new 0 0 100 100;" xml:space="preserve">
<style type="text/css">
	.st0{fill:#010101;}
</style>
<g>
	<path class="st0" d="M55.8,84.1h-13c1,2.5,3.6,4.6,6.5,4.6C52.4,88.7,54.9,86.7,55.8,84.1z"/>
	<polygon class="st0" points="56.2,78.1 42.4,78.1 42.4,80.6 56.2,80.6 	"/>
	<path class="st0" d="M42.6,53.2c-1.7-1.7,0.8-4.2,2.5-2.5l4.6,4.4l4.4-4.4c1.7-1.7,4.2,0.8,2.5,2.5l-5.2,5.2v16.3h5
		c0.4-2.1,1.7-3.8,3.3-4.8C66.2,66.4,70,59.7,70,52.4c0-11.3-9-20.5-20.3-20.5s-20.5,9.2-20.5,20.5c0,7.1,3.8,13.6,9.8,17.4
		c1.9,1,2.9,2.9,3.3,5h5.4V58.4L42.6,53.2z"/>
	<path class="st0" d="M47.8,12.4c0-2.3,3.6-2.3,3.6,0v9c0,2.3-3.6,2.3-3.6,0V12.4z"/>
	<path class="st0" d="M76.7,22.9c1.5-1.7,4,0.8,2.5,2.5l-6.3,6.3c-1.7,1.7-4.2-0.8-2.5-2.5L76.7,22.9z"/>
	<path class="st0" d="M89.4,50.5c2.3,0,2.3,3.6,0,3.6h-8.8c-2.3,0-2.3-3.6,0-3.6H89.4z"/>
	<path class="st0" d="M20.2,25.4c-1.7-1.7,0.8-4.2,2.5-2.5l6.3,6.3c1.7,1.7-0.8,4.2-2.5,2.5L20.2,25.4z"/>
	<path class="st0" d="M9.8,54c-2.3,0-2.3-3.6,0-3.6h9c2.3,0,2.3,3.6,0,3.6H9.8z"/>
</g>
</svg>
