<?xml version="1.0" encoding="utf-8"?>
<!-- Generator: Adobe Illustrator 23.0.6, SVG Export Plug-In . SVG Version: 6.00 Build 0)  -->
<svg version="1.1" id="Layer_1" xmlns="http://www.w3.org/2000/svg" xmlns:xlink="http://www.w3.org/1999/xlink" x="0px" y="0px"
	 viewBox="0 0 100 100" style="enable-background:new 0 0 100 100;" xml:space="preserve">
<style type="text/css">
	.st0{fill:#010101;}
</style>
<g>
	<path class="st0" d="M73.4,58.6c12.8,0,23.2-10.4,23.2-23.2S86.2,12.3,73.4,12.3S50.2,22.7,50.2,35.5S60.6,58.6,73.4,58.6z
		 M61.1,33.1c1.3-1.3,3.4-1.3,4.7,0l4.6,4.6l11-8.2c1.5-1.1,3.5-0.8,4.6,0.7c1.1,1.5,0.8,3.5-0.7,4.6L72,44.7
		c-1.3,1-3.2,0.9-4.3-0.3l-6.6-6.6C59.8,36.5,59.8,34.4,61.1,33.1C61.1,33.1,61.1,33.1,61.1,33.1z M50.2,56L13.8,25.5h35.1
		c-3.8,9.3-2,20,4.7,27.5L50.2,56z M93.2,52.9v22.3c0,5.5-4.4,9.9-9.9,9.9H17.1c-5.5,0-9.9-4.4-9.9-9.9V28.8l40.9,34.1
		c1.2,1.1,3.1,1.1,4.3,0l6.2-5.5C69.6,64.9,84.5,62.9,93.2,52.9z"/>
</g>
</svg>
